<?xml version="1.0" encoding="utf-8"?>
<!-- Generator: Adobe Illustrator 25.1.0, SVG Export Plug-In . SVG Version: 6.00 Build 0)  -->
<svg version="1.1" id="Layer_1" xmlns="http://www.w3.org/2000/svg" xmlns:xlink="http://www.w3.org/1999/xlink" x="0px" y="0px"
	 viewBox="0 0 400 400" style="enable-background:new 0 0 400 400;" xml:space="preserve">
<style type="text/css">
	.st0{fill:#768028;}
	.st1{clip-path:url(#SVGID_2_);fill:url(#SVGID_3_);}
	.st2{clip-path:url(#SVGID_2_);}
	.st3{fill:#FFFFFF;}
	.st4{clip-path:url(#SVGID_5_);fill:url(#SVGID_6_);}
</style>
<g id="LWPOLYLINE_17_">
	<path class="st0" d="M792.78,250.86v-43.38c-8.46,1.37-16.34,5.15-22.7,10.89c-23.33,21.08-58.83,21.08-82.16,0
		c-6.36-5.74-14.24-9.53-22.7-10.89v43.38c0,35.22,28.56,63.78,63.78,63.78C764.22,314.64,792.78,286.08,792.78,250.86z"/>
</g>
<g id="LWPOLYLINE_16_">
	<polyline class="st0" points="729,227.1 665.22,99.54 665.22,85.36 792.78,85.36 792.78,113.71 776.83,113.71 776.83,142.06 
		760.89,142.06 760.89,170.4 744.94,170.4 744.94,198.75 729,198.75 729,227.1 	"/>
</g>
<g id="LWPOLYLINE_3_">
	<path class="st0" d="M658.13,101.21"/>
	<path class="st0" d="M706.9,198.75L706.9,198.75l-10.62-21.26c-0.01,0-0.01,0-0.02,0l-3.54-7.08h0.01l-10.63-21.26
		c-0.01,0-0.01-0.01-0.02-0.01l-3.54-7.08h0.01l-11.01-22.02c-0.01-0.01-0.02-0.02-0.02-0.03l-9.39-18.79l0.05,12.51
		c-0.02,0-0.03-0.01-0.05-0.01v16.5c2.33,4.12,5.46,7.99,9.01,11.48c4.2,4.12,9,7.76,14.17,10.88c-5.69-2.02-11.23-4.66-16.44-8.02
		c-2.32-1.51-4.58-3.17-6.73-5v2.51h0.17l0,0.01c-0.06,0-0.11-0.01-0.17-0.01v12.44c4.47,5.8,9.97,10.97,16.14,15.33
		c6.41,4.53,13.54,8.21,21.11,10.86c-7.89-1.48-15.65-4.06-22.98-7.72c-5-2.5-9.8-5.51-14.27-9.04v6.47h0.29l0,0.02
		c-0.1,0-0.19-0.01-0.29-0.02v9.28l0.13,0.13c6.82,6.76,14.63,12.63,23.17,17.36c8.54,4.73,17.81,8.32,27.48,10.59
		c-9.87-1.07-19.68-3.51-29.05-7.29c-7.6-3.06-14.9-7.01-21.73-11.75v10.02v1.07c12.76,0,25.07,4.74,34.54,13.29
		c7.86,7.1,17.63,11.74,28.09,13.35L706.9,198.75z"/>
</g>
<g id="LWPOLYLINE_1_">
	<path class="st0" d="M799.87,120.8h-15.94v28.35h-15.94v28.35h-15.94v28.35h-15.94v20.79c10.89-1.44,21.09-6.15,29.24-13.52
		c9.47-8.55,21.77-13.29,34.54-13.29V120.8z"/>
</g>
<g>
	<g>
		<g id="LWPOLYLINE_6_">
			<path class="st0" d="M263.78,250.86v-43.38c-8.46,1.37-16.34,5.15-22.7,10.89c-23.33,21.08-58.83,21.08-82.16,0
				c-6.36-5.74-14.24-9.53-22.7-10.89v43.38c0,35.22,28.56,63.78,63.78,63.78S263.78,286.08,263.78,250.86z"/>
		</g>
		<g id="LWPOLYLINE_5_">
			<polyline class="st0" points="200,227.1 136.22,99.54 136.22,85.36 263.78,85.36 263.78,113.71 247.83,113.71 247.83,142.06 
				231.89,142.06 231.89,170.4 215.94,170.4 215.94,198.75 200,198.75 200,227.1 			"/>
		</g>
		<g id="LWPOLYLINE_4_">
			<path class="st0" d="M129.13,101.21"/>
			<path class="st0" d="M177.9,198.75L177.9,198.75l-10.62-21.26c-0.01,0-0.01,0-0.02,0l-3.54-7.08h0.01l-10.63-21.26
				c-0.01,0-0.01-0.01-0.02-0.01l-3.54-7.08h0.01l-11.01-22.02c-0.01-0.01-0.02-0.02-0.02-0.03l-9.39-18.79l0.05,12.51
				c-0.02,0-0.03-0.01-0.05-0.01v16.5c2.33,4.12,5.46,7.99,9.01,11.48c4.2,4.12,9,7.76,14.17,10.88
				c-5.69-2.02-11.23-4.66-16.44-8.02c-2.32-1.51-4.58-3.17-6.73-5v2.51h0.17l0,0.01c-0.06,0-0.11-0.01-0.17-0.01v12.44
				c4.47,5.8,9.97,10.97,16.14,15.33c6.41,4.53,13.54,8.21,21.11,10.86c-7.89-1.48-15.65-4.06-22.98-7.72
				c-5-2.5-9.8-5.51-14.27-9.04v6.47h0.29l0,0.02c-0.1,0-0.19-0.01-0.29-0.02v9.28l0.13,0.13c6.82,6.76,14.63,12.63,23.17,17.36
				c8.54,4.73,17.81,8.32,27.48,10.59c-9.87-1.07-19.68-3.51-29.05-7.29c-7.6-3.06-14.9-7.01-21.73-11.75v10.02v1.07
				c12.76,0,25.07,4.74,34.54,13.29c7.86,7.1,17.63,11.74,28.09,13.35L177.9,198.75z"/>
		</g>
		<g>
			<defs>
				<path id="SVGID_1_" d="M136.22,85.36v14.17L200,227.1v-28.35h15.94V170.4h15.94v-0.52c-0.13,0-0.26,0.04-0.39,0.04
					c-11.74,0-21.26-9.52-21.26-21.26c0-11.74,9.52-21.26,21.26-21.26c6.61,0,12.44,3.08,16.34,7.81v-21.5h15.94V85.36H136.22z"/>
			</defs>
			<clipPath id="SVGID_2_">
				<use xlink:href="#SVGID_1_"  style="overflow:visible;"/>
			</clipPath>
			<radialGradient id="SVGID_3_" cx="231.4958" cy="148.6647" r="133.8352" gradientUnits="userSpaceOnUse">
				<stop  offset="0" style="stop-color:#FFFFFF"/>
				<stop  offset="1" style="stop-color:#FFFFFF;stop-opacity:0"/>
			</radialGradient>
			<polygon class="st1" points="365.33,148.04 236.24,148.04 360.93,114.63 360.61,113.42 235.92,146.83 347.71,82.29 347.09,81.21 
				235.3,145.75 326.57,54.47 325.69,53.59 234.41,144.86 298.95,33.07 297.87,32.45 297.87,32.45 297.87,32.45 233.33,144.24 
				266.74,19.55 265.53,19.23 265.53,19.23 265.53,19.23 232.12,143.92 232.12,14.83 232.12,14.83 230.87,14.83 230.87,14.83 
				230.87,143.92 197.46,19.23 197.46,19.23 197.46,19.23 196.25,19.55 228.54,140.07 229.66,144.24 225.01,136.17 165.12,32.45 
				165.12,32.45 165.12,32.45 164.04,33.07 225.68,139.85 228.58,144.86 137.3,53.59 136.42,54.47 227.7,145.75 115.9,81.21 
				115.28,82.29 227.07,146.83 102.38,113.42 102.06,114.63 226.75,148.04 97.66,148.04 97.66,149.29 226.75,149.29 102.06,182.7 
				102.38,183.91 227.07,150.5 115.28,215.04 115.9,216.12 227.7,151.58 136.42,242.86 137.3,243.74 228.58,152.46 164.04,264.26 
				165.12,264.88 165.12,264.88 165.12,264.88 229.66,153.09 196.25,277.78 197.46,278.1 197.46,278.1 197.46,278.1 230.87,153.41 
				230.87,282.5 230.87,282.5 232.12,282.5 232.12,282.5 232.12,153.41 265.53,278.1 265.53,278.1 265.53,278.1 266.74,277.78 
				234.45,157.26 233.33,153.09 237.99,161.16 297.87,264.88 297.87,264.88 297.87,264.88 298.95,264.26 240.62,163.21 
				234.41,152.46 325.69,243.74 326.57,242.86 235.3,151.58 347.09,216.12 347.71,215.04 235.92,150.5 360.61,183.91 360.93,182.7 
				236.24,149.29 365.33,149.29 			"/>
			<g class="st2">
				<path class="st3" d="M231.5,127.4c11.74,0,21.26,9.52,21.26,21.26s-9.52,21.26-21.26,21.26c-11.74,0-21.26-9.52-21.26-21.26
					S219.75,127.4,231.5,127.4 M231.5,126.15c-12.41,0-22.51,10.1-22.51,22.51c0,12.41,10.1,22.51,22.51,22.51
					s22.51-10.1,22.51-22.51C254.01,136.25,243.91,126.15,231.5,126.15L231.5,126.15z"/>
			</g>
		</g>
		<g>
			<defs>
				<path id="SVGID_4_" d="M263.78,250.86v-43.38c-8.46,1.37-16.34,5.15-22.7,10.89c-23.33,21.08-58.83,21.08-82.16,0
					c-6.36-5.74-14.24-9.53-22.7-10.89v43.38c0,35.22,28.56,63.78,63.78,63.78S263.78,286.08,263.78,250.86z"/>
			</defs>
			<clipPath id="SVGID_5_">
				<use xlink:href="#SVGID_4_"  style="overflow:visible;"/>
			</clipPath>
			<radialGradient id="SVGID_6_" cx="200" cy="172.9036" r="141.7326" gradientUnits="userSpaceOnUse">
				<stop  offset="0" style="stop-color:#FFFFFF"/>
				<stop  offset="1" style="stop-color:#FFFFFF;stop-opacity:0"/>
			</radialGradient>
			<polygon class="st4" points="341.73,172.24 205.03,172.24 337.07,136.86 336.73,135.58 204.68,170.96 323.07,102.61 
				322.41,101.46 204.02,169.82 300.69,73.15 299.75,72.21 203.09,168.88 271.44,50.49 270.29,49.83 270.29,49.83 270.29,49.83 
				201.94,168.22 237.32,36.17 236.04,35.83 236.04,35.83 236.04,35.83 200.66,167.88 200.66,31.17 200.66,31.17 199.34,31.17 
				199.34,31.17 199.34,167.88 163.96,35.83 163.96,35.83 163.96,35.83 162.68,36.17 196.87,163.8 198.06,168.22 193.13,159.68 
				129.71,49.83 129.71,49.83 129.71,49.83 128.56,50.49 193.84,163.56 196.91,168.88 100.25,72.21 99.31,73.15 195.98,169.82 
				77.59,101.46 76.93,102.61 195.32,170.96 63.27,135.58 62.93,136.86 194.97,172.24 58.27,172.24 58.27,173.57 194.97,173.57 
				62.93,208.95 63.27,210.23 195.32,174.84 76.93,243.2 77.59,244.34 195.98,175.99 99.31,272.65 100.25,273.59 196.91,176.93 
				128.56,295.32 129.71,295.98 129.71,295.98 129.71,295.98 198.06,177.59 162.68,309.64 163.96,309.98 163.96,309.98 
				163.96,309.98 199.34,177.93 199.34,314.64 199.34,314.64 200.66,314.64 200.66,314.64 200.66,177.93 236.04,309.98 
				236.04,309.98 236.04,309.98 237.32,309.64 203.13,182.01 201.94,177.59 206.87,186.13 270.29,295.98 270.29,295.98 
				270.29,295.98 271.44,295.32 209.66,188.31 203.09,176.93 299.75,273.59 300.69,272.65 204.02,175.99 322.41,244.34 
				323.07,243.2 204.68,174.84 336.73,210.23 337.07,208.95 205.03,173.56 341.73,173.56 			"/>
		</g>
		<g id="LWPOLYLINE_2_">
			<path class="st0" d="M270.87,120.8h-15.94v28.35h-15.94v28.35h-15.94v28.35h-15.94v20.79c10.89-1.44,21.09-6.15,29.24-13.52
				c9.47-8.55,21.77-13.29,34.54-13.29V120.8z"/>
		</g>
	</g>
	<g>
		<path class="st0" d="M114.71,218.95c0-0.51,0.26-0.89,0.79-1.13l16.08-7.03c0.54-0.22,0.99-0.25,1.34-0.07s0.53,0.51,0.53,1.01
			c0,0.56-0.25,0.94-0.74,1.15l-14.81,6.17v-0.26l14.81,6.29c0.29,0.13,0.48,0.28,0.59,0.44c0.1,0.17,0.16,0.4,0.16,0.68
			c0,0.48-0.17,0.81-0.52,1c-0.34,0.18-0.72,0.18-1.14-0.01l-16.3-7.1c-0.26-0.11-0.45-0.26-0.59-0.44
			C114.78,219.45,114.71,219.22,114.71,218.95z"/>
		<path class="st0" d="M114.61,235.43c0-1.17,0.29-2.22,0.88-3.14c0.58-0.93,1.38-1.66,2.38-2.2c1-0.54,2.13-0.8,3.4-0.8
			s2.4,0.29,3.41,0.88c1.01,0.58,1.8,1.38,2.39,2.38s0.88,2.12,0.88,3.37s-0.29,2.37-0.88,3.36s-1.38,1.78-2.39,2.36
			s-2.14,0.88-3.41,0.88v-0.94c-1.26,0-2.4-0.27-3.4-0.8c-1-0.54-1.79-1.27-2.38-2.2C114.91,237.65,114.61,236.6,114.61,235.43z
			 M114.69,241.29c0-0.35,0.12-0.64,0.35-0.88c0.23-0.23,0.52-0.35,0.88-0.35h3.67l2.54,0.46l-0.86,1.99h-5.35
			c-0.35,0-0.64-0.12-0.88-0.35C114.8,241.93,114.69,241.64,114.69,241.29z M116.77,235.91c0,0.82,0.2,1.54,0.59,2.18
			c0.39,0.64,0.93,1.14,1.61,1.51s1.44,0.55,2.29,0.55c0.86,0,1.64-0.18,2.32-0.55c0.68-0.37,1.22-0.87,1.61-1.51
			c0.39-0.64,0.59-1.37,0.59-2.18c0-0.8-0.2-1.52-0.59-2.17c-0.39-0.65-0.93-1.16-1.61-1.54c-0.68-0.38-1.45-0.56-2.32-0.56
			c-0.85,0-1.61,0.19-2.29,0.56c-0.68,0.38-1.22,0.89-1.61,1.54C116.97,234.39,116.77,235.11,116.77,235.91z"/>
		<path class="st0" d="M114.92,256.17c-0.21-0.25-0.31-0.54-0.29-0.85c0.02-0.31,0.15-0.57,0.41-0.79l5.94-4.97l1.61,1.65l-6.06,5.1
			c-0.25,0.21-0.53,0.31-0.82,0.29C115.41,256.58,115.15,256.44,114.92,256.17z M114.65,247.61c-0.01-0.35,0.1-0.64,0.31-0.86
			s0.49-0.33,0.85-0.34l16.39-0.28c0.35-0.01,0.64,0.1,0.86,0.31c0.22,0.21,0.33,0.49,0.34,0.85c0.01,0.35-0.1,0.64-0.31,0.86
			c-0.21,0.22-0.49,0.33-0.85,0.34l-16.39,0.28c-0.35,0.01-0.64-0.1-0.86-0.31C114.77,248.24,114.66,247.96,114.65,247.61z
			 M119.47,248.65l1.61-1.52l6.7,7.26c0.23,0.24,0.34,0.5,0.33,0.8c-0.01,0.3-0.13,0.55-0.37,0.76c-0.24,0.23-0.5,0.34-0.79,0.33
			s-0.55-0.13-0.77-0.37L119.47,248.65z"/>
		<path class="st0" d="M116.45,268.54c-0.25-1.14-0.19-2.23,0.19-3.26c0.37-1.03,0.99-1.91,1.86-2.65c0.86-0.74,1.91-1.24,3.15-1.51
			c1.23-0.27,2.41-0.22,3.52,0.13c1.11,0.36,2.05,0.96,2.84,1.81s1.31,1.89,1.57,3.11s0.22,2.38-0.14,3.47
			c-0.36,1.09-0.97,2.03-1.83,2.82c-0.86,0.79-1.91,1.31-3.14,1.58l-0.2-0.92c-1.24,0.27-2.4,0.25-3.49-0.06
			c-1.09-0.31-2.02-0.86-2.79-1.64C117.21,270.64,116.7,269.68,116.45,268.54z M117.77,274.25c-0.08-0.34-0.02-0.65,0.15-0.93
			c0.18-0.28,0.44-0.45,0.78-0.53l3.59-0.78l2.58-0.09l-0.42,2.13l-5.23,1.14c-0.34,0.08-0.65,0.02-0.93-0.15
			C118.02,274.85,117.84,274.59,117.77,274.25z M118.67,268.55c0.17,0.8,0.52,1.47,1.04,2.01c0.52,0.54,1.15,0.92,1.89,1.14
			c0.74,0.21,1.53,0.23,2.36,0.05c0.84-0.18,1.56-0.53,2.15-1.03c0.59-0.5,1-1.11,1.25-1.82c0.25-0.71,0.28-1.46,0.11-2.26
			c-0.17-0.78-0.52-1.45-1.04-2s-1.15-0.94-1.9-1.16c-0.74-0.22-1.54-0.24-2.38-0.06c-0.83,0.18-1.54,0.53-2.12,1.04
			s-1,1.13-1.25,1.84C118.53,267.02,118.5,267.77,118.67,268.55z"/>
		<path class="st0" d="M121.04,283.53c-0.15-0.32-0.18-0.63-0.07-0.94c0.11-0.31,0.32-0.54,0.64-0.69l9.64-4.65
			c0.33-0.16,0.65-0.18,0.95-0.07c0.3,0.11,0.53,0.33,0.68,0.64c0.16,0.33,0.19,0.65,0.08,0.95c-0.1,0.3-0.32,0.53-0.65,0.69
			l-9.64,4.65c-0.32,0.15-0.63,0.18-0.93,0.08C121.43,284.08,121.2,283.86,121.04,283.53z M125.33,292.42
			c-0.15-0.32-0.18-0.63-0.07-0.94c0.11-0.31,0.32-0.54,0.64-0.69l5.32-2.57c0.82-0.4,1.42-0.87,1.79-1.42s0.56-1.15,0.57-1.78
			c0-0.63-0.15-1.28-0.47-1.94c-0.29-0.61-0.68-1.09-1.16-1.46c-0.48-0.37-1-0.6-1.55-0.69c-0.55-0.09-1.09-0.01-1.62,0.25
			l-0.66-1.36c0.91-0.44,1.82-0.61,2.75-0.51c0.92,0.09,1.78,0.42,2.57,0.99c0.79,0.56,1.41,1.32,1.87,2.27
			c0.48,0.99,0.7,1.99,0.65,2.98s-0.37,1.91-0.97,2.76c-0.6,0.85-1.5,1.56-2.7,2.14l-5.32,2.57c-0.32,0.15-0.63,0.18-0.94,0.07
			C125.71,292.95,125.48,292.73,125.33,292.42z"/>
		<path class="st0" d="M132.65,303.19c-0.48-0.64-0.74-1.34-0.79-2.1c-0.05-0.76,0.09-1.49,0.44-2.21s0.87-1.33,1.58-1.86l9.2-6.81
			c0.28-0.21,0.58-0.29,0.89-0.24s0.57,0.21,0.78,0.5c0.21,0.28,0.29,0.58,0.24,0.89c-0.05,0.31-0.21,0.57-0.5,0.78l-9.2,6.81
			c-0.51,0.38-0.84,0.84-0.98,1.38c-0.14,0.54-0.05,1.02,0.25,1.43l0.49,0.66c0.17,0.23,0.23,0.49,0.17,0.79
			c-0.06,0.29-0.23,0.55-0.52,0.75c-0.28,0.21-0.59,0.28-0.93,0.2s-0.63-0.29-0.88-0.62L132.65,303.19z M137.99,292.61
			c-0.2-0.27-0.29-0.55-0.25-0.83c0.03-0.28,0.16-0.51,0.39-0.68c0.26-0.19,0.52-0.26,0.8-0.21s0.52,0.21,0.72,0.48l3.3,4.46
			c0.2,0.27,0.28,0.55,0.25,0.83s-0.17,0.52-0.43,0.71c-0.23,0.17-0.49,0.23-0.76,0.18c-0.28-0.05-0.52-0.21-0.72-0.48
			L137.99,292.61z"/>
		<path class="st0" d="M138.05,309.42c-0.24-0.25-0.36-0.55-0.35-0.88c0.01-0.33,0.14-0.61,0.4-0.85l7.75-7.35
			c0.27-0.25,0.56-0.37,0.88-0.36c0.32,0.01,0.6,0.15,0.85,0.4c0.25,0.27,0.38,0.56,0.37,0.88c-0.01,0.32-0.15,0.6-0.41,0.85
			l-7.75,7.35c-0.26,0.24-0.54,0.36-0.87,0.36C138.59,309.83,138.3,309.69,138.05,309.42z M149.13,298.92
			c-0.3-0.31-0.44-0.69-0.43-1.13c0.01-0.44,0.17-0.81,0.49-1.11c0.31-0.3,0.69-0.44,1.13-0.43s0.81,0.17,1.11,0.49
			s0.44,0.69,0.43,1.13s-0.17,0.81-0.49,1.11c-0.31,0.3-0.69,0.44-1.13,0.43C149.8,299.4,149.43,299.24,149.13,298.92z"/>
		<path class="st0" d="M148.77,319.11c-1.05-0.81-1.82-1.75-2.29-2.83c-0.47-1.08-0.64-2.19-0.5-3.34c0.14-1.15,0.61-2.24,1.4-3.27
			c0.8-1.04,1.72-1.79,2.77-2.25c1.05-0.46,2.13-0.62,3.25-0.47c1.12,0.14,2.18,0.6,3.19,1.37c0.99,0.76,1.67,1.63,2.05,2.61
			c0.38,0.98,0.46,2,0.24,3.06c-0.21,1.06-0.71,2.09-1.47,3.09c-0.19,0.24-0.42,0.38-0.71,0.41c-0.29,0.03-0.56-0.05-0.81-0.24
			l-7.68-5.88l1.17-1.52l7.62,5.84l-1.19-0.06c0.47-0.65,0.78-1.31,0.92-2c0.14-0.69,0.1-1.35-0.12-1.98s-0.65-1.19-1.28-1.68
			c-0.72-0.55-1.46-0.87-2.22-0.95s-1.48,0.06-2.17,0.41c-0.69,0.35-1.3,0.87-1.84,1.57c-0.53,0.7-0.85,1.44-0.95,2.23
			s0.01,1.56,0.32,2.3c0.32,0.75,0.84,1.4,1.56,1.95c0.39,0.3,0.85,0.54,1.38,0.71c0.52,0.17,0.99,0.26,1.39,0.26
			c0.3,0.01,0.56,0.09,0.79,0.25c0.23,0.16,0.37,0.38,0.43,0.64c0.07,0.36,0.02,0.65-0.14,0.89c-0.16,0.24-0.42,0.36-0.76,0.36
			c-0.69,0.01-1.45-0.12-2.25-0.39C150.05,319.92,149.36,319.56,148.77,319.11z"/>
		<path class="st0" d="M160.16,326.38c-0.32-0.15-0.54-0.37-0.65-0.68c-0.12-0.31-0.1-0.62,0.05-0.94l4.44-9.74
			c0.15-0.33,0.38-0.56,0.69-0.66c0.3-0.11,0.62-0.09,0.94,0.06c0.33,0.15,0.56,0.38,0.67,0.67c0.11,0.3,0.09,0.61-0.06,0.95
			l-4.44,9.74c-0.15,0.32-0.37,0.54-0.67,0.66C160.81,326.55,160.49,326.53,160.16,326.38z M162.15,322.01
			c-0.32-0.15-0.54-0.37-0.65-0.68c-0.12-0.31-0.1-0.62,0.05-0.94l4.78-10.48c0.15-0.33,0.38-0.56,0.69-0.66s0.62-0.09,0.94,0.06
			c0.33,0.15,0.56,0.38,0.67,0.67c0.11,0.3,0.09,0.61-0.06,0.95l-4.78,10.48c-0.15,0.32-0.37,0.54-0.67,0.66
			C162.8,322.18,162.48,322.17,162.15,322.01z M169.13,330.48c-0.32-0.15-0.54-0.37-0.65-0.68c-0.12-0.31-0.1-0.62,0.05-0.94
			l2.45-5.37c0.38-0.83,0.54-1.58,0.47-2.24c-0.07-0.66-0.3-1.24-0.7-1.73s-0.94-0.89-1.61-1.19c-0.61-0.28-1.22-0.41-1.83-0.39
			c-0.61,0.02-1.15,0.17-1.63,0.46s-0.84,0.69-1.09,1.23l-1.38-0.63c0.42-0.92,1.01-1.63,1.79-2.15c0.77-0.52,1.64-0.81,2.61-0.88
			c0.96-0.07,1.93,0.11,2.89,0.55c1,0.46,1.8,1.08,2.4,1.88c0.6,0.79,0.94,1.71,1.02,2.75s-0.16,2.16-0.71,3.37l-2.45,5.37
			c-0.15,0.32-0.37,0.54-0.68,0.65C169.76,330.64,169.45,330.62,169.13,330.48z"/>
		<path class="st0" d="M183.15,334.49c-1.08-0.21-2.01-0.63-2.78-1.26c-0.77-0.63-1.31-1.44-1.63-2.43
			c-0.32-0.99-0.36-2.14-0.11-3.44l1.12-5.8c0.07-0.34,0.24-0.61,0.51-0.79c0.27-0.18,0.58-0.24,0.93-0.18
			c0.34,0.07,0.61,0.24,0.79,0.51c0.18,0.27,0.24,0.58,0.18,0.93l-1.12,5.8c-0.17,0.88-0.15,1.64,0.07,2.28
			c0.22,0.64,0.58,1.15,1.1,1.53c0.51,0.38,1.12,0.64,1.83,0.78c0.67,0.13,1.3,0.11,1.88-0.05c0.58-0.17,1.07-0.45,1.47-0.84
			c0.4-0.39,0.66-0.88,0.77-1.44l1.48,0.29c-0.19,0.97-0.6,1.81-1.23,2.5c-0.63,0.69-1.4,1.19-2.32,1.48
			C185.19,334.65,184.2,334.69,183.15,334.49z M188.38,335.38c-0.35-0.07-0.61-0.24-0.79-0.51c-0.18-0.27-0.24-0.58-0.18-0.93
			l2.03-10.51c0.07-0.36,0.24-0.63,0.51-0.81c0.27-0.18,0.58-0.23,0.92-0.16c0.36,0.07,0.63,0.24,0.81,0.5
			c0.18,0.26,0.23,0.57,0.16,0.94l-2.03,10.51c-0.07,0.35-0.23,0.61-0.5,0.8C189.06,335.39,188.74,335.44,188.38,335.38z"/>
		<path class="st0" d="M198.34,320.73c-0.43-0.01-0.8-0.17-1.11-0.49c-0.3-0.32-0.45-0.69-0.44-1.13c0.01-0.43,0.17-0.8,0.49-1.11
			s0.69-0.45,1.13-0.44c0.43,0.01,0.8,0.17,1.11,0.49c0.31,0.32,0.45,0.69,0.44,1.13c-0.01,0.43-0.17,0.8-0.49,1.11
			C199.15,320.59,198.77,320.74,198.34,320.73z M198.02,335.99c-0.35-0.01-0.64-0.13-0.87-0.37c-0.23-0.24-0.34-0.53-0.33-0.88
			l0.23-10.68c0.01-0.37,0.13-0.66,0.37-0.88c0.24-0.22,0.53-0.32,0.88-0.32c0.37,0.01,0.66,0.13,0.88,0.36
			c0.22,0.23,0.32,0.53,0.32,0.89l-0.23,10.68c-0.01,0.35-0.13,0.64-0.35,0.87C198.68,335.89,198.38,336,198.02,335.99z"/>
		<path class="st0" d="M210.87,335.4c-1.11,0.14-2.16,0.09-3.15-0.13c-0.99-0.22-1.78-0.57-2.37-1.02c-0.27-0.22-0.4-0.5-0.41-0.83
			c0-0.33,0.12-0.62,0.37-0.86c0.29-0.29,0.59-0.44,0.9-0.44s0.6,0.11,0.85,0.32c0.31,0.27,0.78,0.5,1.4,0.68
			c0.63,0.19,1.31,0.24,2.04,0.15c0.92-0.11,1.61-0.35,2.05-0.71c0.45-0.36,0.65-0.78,0.61-1.26c-0.04-0.48-0.32-0.86-0.83-1.15
			s-1.4-0.47-2.67-0.54c-1.64-0.12-2.87-0.45-3.67-1c-0.8-0.54-1.26-1.28-1.37-2.2c-0.1-0.81,0.05-1.51,0.46-2.1
			c0.41-0.59,0.97-1.06,1.69-1.42c0.71-0.36,1.47-0.58,2.29-0.68c1.05-0.13,2-0.08,2.85,0.15c0.85,0.23,1.55,0.61,2.1,1.14
			c0.25,0.23,0.39,0.48,0.41,0.76c0.02,0.28-0.09,0.53-0.32,0.75c-0.23,0.21-0.53,0.3-0.88,0.28c-0.36-0.02-0.67-0.13-0.93-0.32
			c-0.45-0.33-0.91-0.54-1.38-0.63c-0.48-0.08-1.02-0.09-1.62-0.02c-0.7,0.09-1.28,0.28-1.73,0.58c-0.46,0.3-0.65,0.68-0.6,1.14
			c0.04,0.29,0.14,0.54,0.32,0.75c0.18,0.21,0.5,0.38,0.97,0.51c0.47,0.13,1.14,0.23,2.02,0.29c1.22,0.09,2.2,0.27,2.94,0.55
			s1.29,0.64,1.65,1.09c0.36,0.45,0.58,0.99,0.66,1.62c0.09,0.73-0.02,1.41-0.34,2.05c-0.32,0.64-0.83,1.17-1.54,1.62
			S212,335.26,210.87,335.4z"/>
		<path class="st0" d="M218.25,318.3c-0.42,0.11-0.82,0.06-1.2-0.16c-0.38-0.22-0.63-0.54-0.75-0.95c-0.12-0.42-0.06-0.82,0.16-1.2
			c0.22-0.38,0.54-0.63,0.95-0.75c0.42-0.12,0.82-0.06,1.2,0.16c0.38,0.22,0.63,0.54,0.75,0.95c0.12,0.42,0.06,0.82-0.16,1.2
			C218.98,317.94,218.66,318.19,218.25,318.3z M219.47,339.62c-0.34,0.09-0.65,0.06-0.93-0.11c-0.28-0.17-0.46-0.42-0.56-0.76
			c-0.1-0.36-0.07-0.67,0.09-0.95c0.16-0.28,0.4-0.46,0.74-0.55c0.62-0.17,1.12-0.45,1.51-0.85s0.65-0.86,0.8-1.4
			s0.13-1.11-0.03-1.71l-3.14-11.43c-0.1-0.35-0.06-0.67,0.1-0.95c0.16-0.28,0.42-0.46,0.76-0.56c0.35-0.1,0.67-0.07,0.95,0.09
			c0.28,0.16,0.46,0.41,0.56,0.77l3.14,11.43c0.29,1.06,0.32,2.07,0.07,3.02c-0.25,0.95-0.71,1.77-1.4,2.46
			C221.44,338.82,220.55,339.32,219.47,339.62z"/>
		<path class="st0" d="M235.87,328.15c-1.21,0.55-2.4,0.78-3.58,0.69c-1.17-0.09-2.23-0.47-3.18-1.14
			c-0.95-0.67-1.69-1.59-2.22-2.77c-0.54-1.19-0.77-2.36-0.68-3.5c0.09-1.14,0.46-2.17,1.11-3.09c0.65-0.92,1.56-1.64,2.71-2.17
			c1.13-0.52,2.22-0.71,3.27-0.58c1.04,0.13,1.98,0.54,2.81,1.23s1.51,1.6,2.03,2.76c0.12,0.28,0.13,0.55,0.03,0.82
			c-0.11,0.27-0.31,0.47-0.6,0.6l-8.81,4l-0.79-1.75l8.74-3.97l-0.62,1.02c-0.34-0.72-0.79-1.31-1.32-1.76
			c-0.54-0.45-1.14-0.73-1.8-0.83s-1.36,0.01-2.09,0.34c-0.83,0.38-1.46,0.88-1.88,1.51c-0.42,0.63-0.64,1.33-0.66,2.11
			c-0.02,0.77,0.15,1.56,0.52,2.36c0.36,0.8,0.87,1.43,1.52,1.89s1.38,0.73,2.18,0.8c0.81,0.07,1.62-0.08,2.46-0.46
			c0.45-0.21,0.88-0.5,1.27-0.88c0.4-0.38,0.69-0.75,0.88-1.1c0.14-0.26,0.34-0.45,0.6-0.57c0.25-0.12,0.51-0.15,0.77-0.07
			c0.35,0.11,0.59,0.29,0.72,0.54c0.13,0.26,0.12,0.53-0.04,0.84c-0.32,0.62-0.79,1.22-1.41,1.8
			C237.19,327.4,236.54,327.84,235.87,328.15z"/>
		<path class="st0" d="M250.21,319.65c-0.91,0.66-1.85,1.13-2.82,1.41c-0.97,0.28-1.83,0.36-2.56,0.25
			c-0.34-0.07-0.6-0.24-0.76-0.53c-0.16-0.29-0.19-0.6-0.09-0.93c0.11-0.39,0.3-0.67,0.58-0.82c0.28-0.15,0.58-0.2,0.9-0.13
			c0.4,0.09,0.92,0.06,1.56-0.08s1.26-0.42,1.86-0.86c0.75-0.54,1.23-1.08,1.45-1.62c0.22-0.53,0.19-1-0.08-1.4
			c-0.27-0.4-0.7-0.6-1.29-0.61s-1.45,0.26-2.6,0.82c-1.5,0.69-2.73,0.99-3.69,0.9c-0.96-0.09-1.72-0.51-2.27-1.26
			c-0.48-0.66-0.68-1.35-0.61-2.06s0.34-1.4,0.79-2.06s1.01-1.22,1.67-1.7c0.85-0.62,1.71-1.03,2.57-1.24s1.65-0.21,2.39-0.01
			c0.33,0.08,0.57,0.23,0.72,0.47c0.15,0.24,0.18,0.51,0.09,0.81c-0.1,0.29-0.32,0.52-0.64,0.67c-0.32,0.16-0.65,0.21-0.97,0.17
			c-0.55-0.08-1.05-0.04-1.52,0.12c-0.46,0.16-0.94,0.41-1.43,0.77c-0.57,0.41-0.98,0.86-1.24,1.34c-0.25,0.48-0.24,0.91,0.03,1.29
			c0.17,0.23,0.38,0.4,0.64,0.5c0.26,0.1,0.62,0.09,1.1-0.02c0.47-0.11,1.11-0.35,1.91-0.72c1.11-0.51,2.06-0.82,2.84-0.93
			c0.78-0.11,1.44-0.06,1.97,0.16c0.53,0.22,0.99,0.58,1.36,1.1c0.43,0.6,0.66,1.25,0.69,1.96c0.03,0.71-0.16,1.43-0.57,2.16
			S251.13,318.98,250.21,319.65z"/>
		<path class="st0" d="M269.1,300.43c-0.3,0.42-0.73,0.57-1.3,0.46l-17.17-3.65c-0.57-0.13-0.95-0.38-1.13-0.72
			c-0.18-0.35-0.13-0.72,0.16-1.13c0.33-0.46,0.75-0.62,1.28-0.5l15.63,3.61l-0.15,0.21l-8.37-13.74c-0.16-0.27-0.23-0.51-0.22-0.7
			s0.1-0.41,0.27-0.65c0.28-0.39,0.61-0.56,1-0.51s0.69,0.28,0.92,0.67l9.11,15.27c0.14,0.24,0.22,0.47,0.22,0.7
			C269.33,299.99,269.26,300.21,269.1,300.43z"/>
		<path class="st0" d="M279.14,282.23c-0.48,1.21-1.16,2.16-2.05,2.88c-0.89,0.71-1.91,1.15-3.05,1.31c-1.14,0.16-2.31,0-3.52-0.48
			c-1.22-0.48-2.19-1.17-2.91-2.07s-1.16-1.91-1.33-3.04c-0.16-1.13,0-2.3,0.47-3.5c0.47-1.19,1.15-2.14,2.05-2.85
			c0.89-0.71,1.91-1.15,3.05-1.31c1.14-0.16,2.32,0,3.54,0.49c1.21,0.48,2.17,1.16,2.89,2.05c0.72,0.89,1.17,1.9,1.33,3.03
			S279.62,281.02,279.14,282.23z M277.14,281.43c0.31-0.77,0.4-1.53,0.28-2.27c-0.12-0.74-0.43-1.4-0.92-1.98s-1.15-1.04-1.96-1.36
			s-1.61-0.44-2.38-0.36c-0.76,0.08-1.44,0.35-2.04,0.81c-0.59,0.45-1.04,1.07-1.35,1.84s-0.4,1.53-0.28,2.26s0.43,1.4,0.93,1.99
			c0.5,0.59,1.15,1.05,1.97,1.38c0.82,0.32,1.61,0.44,2.37,0.34c0.76-0.09,1.44-0.37,2.03-0.82
			C276.38,282.82,276.83,282.21,277.14,281.43z"/>
		<path class="st0" d="M283.28,268.21c-0.07,0.38-0.22,0.65-0.45,0.82c-0.23,0.17-0.55,0.22-0.94,0.15l-10.56-1.87
			c-0.38-0.07-0.65-0.22-0.82-0.46c-0.17-0.24-0.22-0.55-0.15-0.93c0.07-0.39,0.22-0.67,0.45-0.83c0.23-0.16,0.54-0.21,0.94-0.14
			l10.56,1.87c0.38,0.07,0.65,0.22,0.82,0.45S283.35,267.82,283.28,268.21z M275.19,266.8c-0.95-0.17-1.75-0.55-2.42-1.15
			c-0.67-0.6-1.15-1.33-1.45-2.19c-0.3-0.87-0.37-1.77-0.2-2.72s0.45-1.62,0.84-2.03c0.39-0.41,0.79-0.52,1.19-0.34
			c0.21,0.09,0.37,0.21,0.46,0.36c0.09,0.16,0.14,0.32,0.14,0.5c0,0.18-0.04,0.37-0.12,0.56c-0.38,0.97-0.56,1.88-0.53,2.71
			c0.03,0.83,0.24,1.53,0.63,2.07c0.39,0.55,0.95,0.89,1.67,1.02L275.19,266.8z"/>
		<path class="st0" d="M285.11,249.24c-0.01,1.25-0.3,2.37-0.9,3.37c-0.59,1-1.39,1.78-2.4,2.36s-2.15,0.86-3.41,0.86
			c-1.26-0.01-2.39-0.28-3.39-0.82s-1.79-1.28-2.36-2.21c-0.58-0.93-0.87-1.98-0.86-3.15c0.01-0.94,0.21-1.82,0.6-2.61
			c0.4-0.8,0.93-1.47,1.61-2.01l-6.48-0.04c-0.37,0-0.66-0.12-0.89-0.35c-0.22-0.23-0.33-0.53-0.33-0.88c0-0.37,0.12-0.66,0.34-0.89
			c0.22-0.22,0.52-0.33,0.89-0.33l10.95,0.06c1.26,0.01,2.4,0.31,3.4,0.9c1,0.59,1.79,1.38,2.37,2.38
			C284.83,246.87,285.12,247.99,285.11,249.24z M282.95,249.23c0-0.82-0.19-1.54-0.58-2.19c-0.39-0.64-0.92-1.15-1.61-1.52
			c-0.69-0.37-1.45-0.56-2.3-0.56c-0.87-0.01-1.63,0.17-2.31,0.54s-1.21,0.87-1.6,1.5c-0.4,0.64-0.6,1.36-0.6,2.18
			c0,0.8,0.19,1.53,0.58,2.17c0.39,0.65,0.92,1.17,1.59,1.55s1.44,0.57,2.3,0.58c0.85,0,1.62-0.18,2.31-0.55
			c0.69-0.37,1.23-0.88,1.63-1.53C282.74,250.75,282.94,250.03,282.95,249.23z"/>
		<path class="st0" d="M285.11,232.06c0,1.33-0.28,2.51-0.85,3.54s-1.35,1.84-2.35,2.42c-1,0.58-2.15,0.88-3.44,0.88
			c-1.31,0-2.47-0.28-3.47-0.83c-1-0.55-1.79-1.32-2.35-2.29c-0.57-0.98-0.85-2.1-0.85-3.36c0-1.25,0.28-2.32,0.83-3.22
			c0.55-0.9,1.31-1.58,2.28-2.05c0.97-0.47,2.08-0.71,3.35-0.71c0.3,0,0.55,0.1,0.76,0.31c0.2,0.21,0.3,0.47,0.3,0.79v9.67h-1.92
			v-9.6l0.67,0.98c-0.8,0.02-1.52,0.18-2.15,0.48c-0.63,0.3-1.13,0.74-1.5,1.3c-0.37,0.56-0.55,1.24-0.55,2.04
			c0,0.91,0.2,1.69,0.6,2.34c0.4,0.65,0.95,1.14,1.64,1.48c0.7,0.34,1.48,0.5,2.36,0.5c0.88,0,1.66-0.2,2.35-0.6
			c0.69-0.4,1.23-0.95,1.63-1.66c0.4-0.7,0.6-1.51,0.6-2.42c0-0.5-0.09-1-0.28-1.52c-0.18-0.52-0.4-0.94-0.64-1.26
			c-0.18-0.24-0.27-0.5-0.28-0.78c-0.01-0.28,0.08-0.52,0.25-0.73c0.24-0.27,0.5-0.42,0.79-0.43c0.29-0.02,0.54,0.11,0.74,0.38
			c0.43,0.54,0.79,1.22,1.06,2.03C284.97,230.55,285.11,231.32,285.11,232.06z"/>
		<path class="st0" d="M285.04,212.23c0,0.35-0.12,0.64-0.35,0.88c-0.23,0.23-0.52,0.35-0.88,0.35h-5.9c-0.91,0-1.66,0.17-2.23,0.5
			c-0.58,0.34-1,0.79-1.29,1.36c-0.28,0.57-0.42,1.22-0.42,1.96c0,0.67,0.14,1.28,0.41,1.82c0.27,0.54,0.64,0.98,1.09,1.3
			c0.46,0.32,0.98,0.48,1.57,0.48v1.51c-1.01,0-1.91-0.24-2.7-0.73c-0.79-0.49-1.42-1.16-1.88-2c-0.46-0.85-0.7-1.8-0.7-2.86
			c0-1.1,0.24-2.09,0.71-2.96c0.47-0.87,1.16-1.56,2.08-2.06s2.03-0.76,3.36-0.76h5.9c0.35,0,0.64,0.12,0.88,0.35
			C284.92,211.59,285.04,211.88,285.04,212.23z M285.04,222.09c0,0.35-0.12,0.64-0.35,0.88s-0.52,0.35-0.88,0.35h-10.7
			c-0.37,0-0.66-0.12-0.89-0.35c-0.22-0.23-0.34-0.52-0.34-0.88c0-0.37,0.11-0.66,0.34-0.89c0.22-0.22,0.52-0.34,0.89-0.34h10.7
			c0.35,0,0.64,0.11,0.88,0.34C284.92,221.43,285.04,221.73,285.04,222.09z"/>
	</g>
</g>
</svg>
